interactions:
- request:
    body: null
    headers:
      Accept: [application/json]
      Authorization: [Basic NGUyODI4MmMtOWI4Yy00NGU5LTljM2ItOTI5OTEyMjFhOWVkOg==]
      Content-Type: [application/json]
      User-Agent: [python-requests/1.2.0 porc/0.3.0]
    method: GET
    uri: https://api.orchestrate.io:443/v0/COLLECTION_1?limit=1&query=%2A
  response:
    body: {string: '{"count":1,"total_count":6,"results":[{"path":{"collection":"COLLECTION_1","key":"03cf225cf12051b0","ref":"545689fb72dd515a"},"value":{"lol":true},"score":1.0}],"next":"/v0/COLLECTION_1?limit=1&query=%2A&offset=1"}'}
    headers:
      Connection: [keep-alive]
      Content-Type: [application/json]
      Date: ['Wed, 09 Jul 2014 08:27:18 GMT']
      Link: ['</v0/COLLECTION_1?limit=1&query=%2A&offset=1>; rel="next"']
      Vary: [Accept-Encoding]
      X-ORCHESTRATE-REQ-ID: [d6c35900-0742-11e4-95a6-12313d2f7cdc]
      transfer-encoding: [chunked]
    status: {code: 200, message: OK}
- request:
    body: null
    headers:
      Accept: [application/json]
      Authorization: [Basic NGUyODI4MmMtOWI4Yy00NGU5LTljM2ItOTI5OTEyMjFhOWVkOg==]
      Content-Type: [application/json]
      User-Agent: [python-requests/1.2.0 porc/0.3.0]
    method: GET
    uri: https://api.orchestrate.io:443//v0/COLLECTION_1?limit=1&query=%2A&offset=1&limit=1&query=%2A
  response:
    body: {string: '{"count":1,"total_count":6,"results":[{"path":{"collection":"COLLECTION_1","key":"03cf2257222051af","ref":"545689fb72dd515a"},"value":{"lol":true},"score":1.0}],"next":"/v0/COLLECTION_1?limit=1&limit=1&query=%2A&query=%2A&offset=2","prev":"/v0/COLLECTION_1?limit=1&limit=1&query=%2A&query=%2A&offset=0"}'}
    headers:
      Connection: [keep-alive]
      Content-Type: [application/json]
      Date: ['Wed, 09 Jul 2014 08:27:18 GMT']
      Link: ['</v0/COLLECTION_1?limit=1&limit=1&query=%2A&query=%2A&offset=2>; rel="next"',
        '</v0/COLLECTION_1?limit=1&limit=1&query=%2A&query=%2A&offset=0>; rel="prev"',
        '</v0/COLLECTION_1?limit=1&limit=1&query=%2A&query=%2A&offset=2>; rel="next"',
        '</v0/COLLECTION_1?limit=1&limit=1&query=%2A&query=%2A&offset=0>; rel="prev"']
      Vary: [Accept-Encoding]
      X-ORCHESTRATE-REQ-ID: [d7034830-0742-11e4-9662-12313d2f9238]
      transfer-encoding: [chunked]
    status: {code: 200, message: OK}
version: 1
