interactions:
- request:
    body: null
    headers:
      Accept: [application/json]
      Authorization: [Basic NGUyODI4MmMtOWI4Yy00NGU5LTljM2ItOTI5OTEyMjFhOWVkOg==]
      Content-Type: [application/json]
      User-Agent: [python-requests/1.2.0 porc/0.3.0]
    method: GET
    uri: https://api.orchestrate.io:443/v0/COLLECTION_1?limit=1&query=%2A
  response:
    body: {string: '{"count":1,"total_count":3,"results":[{"path":{"collection":"COLLECTION_1","key":"03cf22696920cd0a","ref":"545689fb72dd515a"},"value":{"lol":true},"score":1.0}],"next":"/v0/COLLECTION_1?limit=1&query=%2A&offset=1"}'}
    headers:
      Connection: [keep-alive]
      Content-Type: [application/json]
      Date: ['Wed, 09 Jul 2014 08:27:25 GMT']
      Link: ['</v0/COLLECTION_1?limit=1&query=%2A&offset=1>; rel="next"']
      Vary: [Accept-Encoding]
      X-ORCHESTRATE-REQ-ID: [db57d540-0742-11e4-95a6-12313d2f7cdc]
      transfer-encoding: [chunked]
    status: {code: 200, message: OK}
- request:
    body: null
    headers:
      Accept: [application/json]
      Authorization: [Basic NGUyODI4MmMtOWI4Yy00NGU5LTljM2ItOTI5OTEyMjFhOWVkOg==]
      Content-Type: [application/json]
      User-Agent: [python-requests/1.2.0 porc/0.3.0]
    method: GET
    uri: https://api.orchestrate.io:443/v0/COLLECTION_1?limit=1&query=%2A
  response:
    body: {string: '{"count":1,"total_count":1,"results":[{"path":{"collection":"COLLECTION_1","key":"03cf227a932051b3","ref":"545689fb72dd515a"},"value":{"lol":true},"score":1.0}]}'}
    headers:
      Connection: [keep-alive]
      Content-Type: [application/json]
      Date: ['Wed, 09 Jul 2014 08:27:25 GMT']
      Vary: [Accept-Encoding]
      X-ORCHESTRATE-REQ-ID: [db673e90-0742-11e4-94dc-22000a0d84a1]
      transfer-encoding: [chunked]
    status: {code: 200, message: OK}
version: 1
